# vertices for sign plate
v -3 50 -20
v -3 50 20
v -3 52 20
v -3 52 -20
v -3 32 -20
v -3 32 20
v -3 34 20
v -3 34 -20
v -3 34 -18
v -3 50 -18
v -3 34 18
v -3 50 18
v 2 32 20
v 2 32 -20
v 2 52 -20
v 2 52 20

# texcoords for sign plate (sign plate now added to main texture JPG)
# Three areas, metal, red (warning), brown (info), white (border).
vt 0.875 0.96875 0
vt 0.90625 0.96875 0
vt 0.90625 1 0
vt 0.875 1 0
vt 0.9375 0.96875 0
vt 0.9375 1 0
vt 0.96875 0.96875 0
vt 0.96875 1 0
vt 1 0.96875 0
vt 1 1 0

# indices for triangles. (actually quads)
#f vidx/tidx/nidx
# borders
# top
f 1/7/0 2/9/0 3/10/0 4/8/0

# bottom
f 5/7/0 6/9/0 7/10/0 8/8/0

# left
f 8/7/0 9/9/0 10/10/0 1/8/0

# right
f 11/7/0 7/9/0 2/10/0 12/8/0

# main sign area
f 9/5/0 11/7/0 12/8/0 10/6/0

# back (all metallic)
f 13/1/0 14/2/0 15/3/0 16/4/0

# top edge
f 4/1/0 3/2/0 16/3/0 15/4/0

# bottom edge
f 5/1/0 6/2/0 13/3/0 14/4/0

# left edge
f 14/1/0 5/2/0 4/3/0 15/4/0

# right edge
f 6/1/0 13/2/0 16/3/0 3/4/0